…
    ## Warning: NAs introduced by coercion

``` r
qpcr <- qpcr[ ! qpcr$Sample %in% "Blanc", ]
qpcr <- qpcr[rowSums(is.na(qpcr)) == 2,]
qpcr$Sample <- as.numeric(qpcr$Sample)
qpcr$Sample <- abs(qpcr$Sample)
qpcr$Gene <- gsub(pattern = " ", replacement = "_", x = qpcr$Gene)
qpcr
```

    ## # A tibble: 273 x 6
    ##    Sample Gene       CT   Tm1 Tm2   Tm3  
    ##     <dbl> <chr>   <dbl> <dbl> <lgl> <lgl>
    ##  1      5 Vcam1_1  9.86  78.3 NA    NA   
    ##  2      5 Vcam1_1 10.5   78.3 NA    NA   
    ##  3      5 Vcam1_1 10.7   78.3 NA    NA   
    ##  4      6 Vcam1_1 14.4   78.3 NA    NA   
    ##  5      6 Vcam1_1 14.2   78.3 NA    NA   
    ##  6      6 Vcam1_1 13.5   78.3 NA    NA   
    ##  7      7 Vcam1_1 17.0   78.3 NA    NA   
    ##  8      7 Vcam1_1 17.1   78.3 NA    NA   
    ##  9      7 Vcam1_1 17.1   78.3 NA    NA   
    ## 10      8 Vcam1_1 20.0   78.3 NA    NA   
    ## # … with 263 more rows
…
